Best Practices for Using eBird Data - 2 eBird Data
…
Taxonomic rollup: eBird observations can be made at levels below species (e.g. subspecies) or above species (e.g. a bird that was identified as a duck, but the species could not be determined); however, for most uses we’ll want observations at the species level. auk_rollup() is applied by default when read_ebd() is used. It drops all observations not identifiable to a species and rolls up all observations reported below species to the species level.

Before proceeding, we’ll briefly demonstrate how shared checklists are collapsed and taxonomic rollup is performed. In practice, the auk read functions apply these processing steps by default and most data users will not have to worry about them.

2.4.1 Shared checklists

eBird allows users to share checklists with other eBirders in their group, for example this checklist is shared by 8 observers. These checklists can be identified by looking at the group_identifier variable, which assigns an ID connecting all checklists in the group. To demonstrate this, we’ll read the checklist data in again, but with the argument unique = FALSE used to prevent read_sampling() from collapsing the shared checklists.

checklists_shared <- read_sampling(f_sed, unique = FALSE)
# identify shared checklists
checklists_shared %>% 
  filter(!is.na(group_identifier)) %>% 
  arrange(group_identifier) %>% 
  select(sampling_event_identifier, group_identifier)
#> # A tibble: 223,846 × 2
#>   sampling_event_identifier group_identifier
#>   <chr>                     <chr>           
#> 1 S19814680                 G1000012        
#> 2 S133802656                G10000310       
#> 3 S132144928                G10000310       
#> 4 S132144792                G10000330       
#> 5 S133803635                G10000330       
#> 6 S133859929                G10000432       
#> # ℹ 223,840 more rows
…
